데이터 변형
…
---

```r
iris1=as_tibble(iris)
iris1
```

```
# A tibble: 150 x 5
   Sepal.Length Sepal.Width Petal.Length Petal.Width Species
          <dbl>       <dbl>        <dbl>       <dbl>  <fctr>
 1          5.1         3.5          1.4         0.2  setosa
 2          4.9         3.0          1.4         0.2  setosa
 3          4.7         3.2          1.3         0.2  setosa
 4          4.6         3.1          1.5         0.2  setosa
 5          5.0         3.6          1.4         0.2  setosa
 6          5.4         3.9          1.7         0.4  setosa
 7          4.6         3.4          1.4         0.3  setosa
 8          5.0         3.4          1.5         0.2  setosa
 9          4.4         2.9          1.4         0.2  setosa
10          4.9         3.1          1.5         0.1  setosa
# ... with 140 more rows
```
…
- 그룹별 변수추가(및 데이터 필터링)

---

### 데이터 소개

- *flights* : 2013년에 뉴욕시에서 출발한 모든 비행기록(336,776 flights)

```r
flights
```

```
# A tibble: 336,776 x 19
    year month   day dep_time sched_dep_time dep_delay arr_time
   <int> <int> <int>    <int>          <int>     <dbl>    <int>
 1  2013     1     1      517            515         2      830
 2  2013     1     1      533            529         4      850
 3  2013     1     1      542            540         2      923
 4  2013     1     1      544            545        -1     1004
 5  2013     1     1      554            600        -6      812
 6  2013     1     1      554            558        -4      740
 7  2013     1     1      555            600        -5      913
 8  2013     1     1      557            600        -3      709
 9  2013     1     1      557            600        -3      838
10  2013     1     1      558            600        -2      753
# ... with 336,766 more rows, and 12 more variables: sched_arr_time <int>,
#   arr_delay <dbl>, carrier <chr>, flight <int>, tailnum <chr>,
#   origin <chr>, dest <chr>, air_time <dbl>, distance <dbl>, hour <dbl>,
#   minute <dbl>, time_hour <dttm>
```
…
---

### Filter rows with filter()

filter() 함수는 관찰치들의 값을 기준으로 부분집합을 만들어준다. 함수의 첫번째 인수는 데이터프레임의 이름이고 두번째 이후의 인수들은 데이터를 골라내는 기준이다. 

flights 데이터 중 1월 1일 의 데이타만 골라내려면:

```r
filter(flights, month==1, day==1)
```

```
# A tibble: 842 x 19
    year month   day dep_time sched_dep_time dep_delay arr_time
   <int> <int> <int>    <int>          <int>     <dbl>    <int>
 1  2013     1     1      517            515         2      830
 2  2013     1     1      533            529         4      850
 3  2013     1     1      542            540         2      923
 4  2013     1     1      544            545        -1     1004
 5  2013     1     1      554            600        -6      812
 6  2013     1     1      554            558        -4      740
 7  2013     1     1      555            600        -5      913
 8  2013     1     1      557            600        -3      709
 9  2013     1     1      557            600        -3      838
10  2013     1     1      558            600        -2      753
# ... with 832 more rows, and 12 more variables: sched_arr_time <int>,
#   arr_delay <dbl>, carrier <chr>, flight <int>, tailnum <chr>,
#   origin <chr>, dest <chr>, air_time <dbl>, distance <dbl>, hour <dbl>,
#   minute <dbl>, time_hour <dttm>
```
…
이때는 새로운 이름으로 할당이 되지만 인쇄가 되지는 않는다. 

---

할당과 동시에 인쇄를 하려면 할당문 앞뒤를 괄호로 감싸주면 된다. 예를 들어 12월 25일의 비행기록을 dec25에 할당하면서 동시에 저장하려면 다음과 같이 한다.

```r
(dec25 <- filter(flights, month==12, day==25))
```

```
# A tibble: 719 x 19
    year month   day dep_time sched_dep_time dep_delay arr_time
   <int> <int> <int>    <int>          <int>     <dbl>    <int>
 1  2013    12    25      456            500        -4      649
 2  2013    12    25      524            515         9      805
 3  2013    12    25      542            540         2      832
 4  2013    12    25      546            550        -4     1022
 5  2013    12    25      556            600        -4      730
 6  2013    12    25      557            600        -3      743
 7  2013    12    25      557            600        -3      818
 8  2013    12    25      559            600        -1      855
 9  2013    12    25      559            600        -1      849
10  2013    12    25      600            600         0      850
# ... with 709 more rows, and 12 more variables: sched_arr_time <int>,
#   arr_delay <dbl>, carrier <chr>, flight <int>, tailnum <chr>,
#   origin <chr>, dest <chr>, air_time <dbl>, distance <dbl>, hour <dbl>,
#   minute <dbl>, time_hour <dttm>
```
…
---

flights 데이터에서 1월과 12월의 비행기록을 찾으려면 다음과 같이 한다.

```r
filter(flights, month == 1 | month == 12)
```

```
# A tibble: 55,139 x 19
    year month   day dep_time sched_dep_time dep_delay arr_time
   <int> <int> <int>    <int>          <int>     <dbl>    <int>
 1  2013     1     1      517            515         2      830
 2  2013     1     1      533            529         4      850
 3  2013     1     1      542            540         2      923
 4  2013     1     1      544            545        -1     1004
 5  2013     1     1      554            600        -6      812
 6  2013     1     1      554            558        -4      740
 7  2013     1     1      555            600        -5      913
 8  2013     1     1      557            600        -3      709
 9  2013     1     1      557            600        -3      838
10  2013     1     1      558            600        -2      753
# ... with 55,129 more rows, and 12 more variables: sched_arr_time <int>,
#   arr_delay <dbl>, carrier <chr>, flight <int>, tailnum <chr>,
#   origin <chr>, dest <chr>, air_time <dbl>, distance <dbl>, hour <dbl>,
#   minute <dbl>, time_hour <dttm>
```
…
하지만 다음과 같이 쓸 수는 없다.

```r
filter(flights, month == 1 | 12)
```

이때는 1|12 가 TRUE가 되므로 모든 자료가 된다. 이러한 방법으로 쓸 수 있는 연산자는 `포함(include) 연산자`이며 `x %in% y`와 같이 사용한다. 이 연산자는 x가 y의 값중 하나일때 참이 된다. 따라서 1월, 7월, 12월의 비행기록을 찾으려면 다음과 같이 할 수 있다.

```r
filter(flights, month %in% c(1,7,12))
```

```
# A tibble: 84,564 x 19
    year month   day dep_time sched_dep_time dep_delay arr_time
   <int> <int> <int>    <int>          <int>     <dbl>    <int>
 1  2013     1     1      517            515         2      830
 2  2013     1     1      533            529         4      850
 3  2013     1     1      542            540         2      923
 4  2013     1     1      544            545        -1     1004
 5  2013     1     1      554            600        -6      812
 6  2013     1     1      554            558        -4      740
 7  2013     1     1      555            600        -5      913
 8  2013     1     1      557            600        -3      709
 9  2013     1     1      557            600        -3      838
10  2013     1     1      558            600        -2      753
# ... with 84,554 more rows, and 12 more variables: sched_arr_time <int>,
#   arr_delay <dbl>, carrier <chr>, flight <int>, tailnum <chr>,
#   origin <chr>, dest <chr>, air_time <dbl>, distance <dbl>, hour <dbl>,
#   minute <dbl>, time_hour <dttm>
```
…
---

## 데이터 정렬하기(Arrange rows) `arrange()`

arrange() 함수는 데이타프레임과 열 이름으로 데이타를 정렬한다. 

```r
arrange(flights, year, month, day)
```

```
# A tibble: 336,776 x 19
    year month   day dep_time sched_dep_time dep_delay arr_time
   <int> <int> <int>    <int>          <int>     <dbl>    <int>
 1  2013     1     1      517            515         2      830
 2  2013     1     1      533            529         4      850
 3  2013     1     1      542            540         2      923
 4  2013     1     1      544            545        -1     1004
 5  2013     1     1      554            600        -6      812
 6  2013     1     1      554            558        -4      740
 7  2013     1     1      555            600        -5      913
 8  2013     1     1      557            600        -3      709
 9  2013     1     1      557            600        -3      838
10  2013     1     1      558            600        -2      753
# ... with 336,766 more rows, and 12 more variables: sched_arr_time <int>,
#   arr_delay <dbl>, carrier <chr>, flight <int>, tailnum <chr>,
#   origin <chr>, dest <chr>, air_time <dbl>, distance <dbl>, hour <dbl>,
#   minute <dbl>, time_hour <dttm>
```

---

desc()을 사용하면 내림차순으로 정렬할 수 있다.

```r
arrange(flights, desc(arr_delay))
```

```
# A tibble: 336,776 x 19
    year month   day dep_time sched_dep_time dep_delay arr_time
   <int> <int> <int>    <int>          <int>     <dbl>    <int>
 1  2013     1     9      641            900      1301     1242
 2  2013     6    15     1432           1935      1137     1607
 3  2013     1    10     1121           1635      1126     1239
 4  2013     9    20     1139           1845      1014     1457
 5  2013     7    22      845           1600      1005     1044
 6  2013     4    10     1100           1900       960     1342
 7  2013     3    17     2321            810       911      135
 8  2013     7    22     2257            759       898      121
 9  2013    12     5      756           1700       896     1058
10  2013     5     3     1133           2055       878     1250
# ... with 336,766 more rows, and 12 more variables: sched_arr_time <int>,
#   arr_delay <dbl>, carrier <chr>, flight <int>, tailnum <chr>,
#   origin <chr>, dest <chr>, air_time <dbl>, distance <dbl>, hour <dbl>,
#   minute <dbl>, time_hour <dttm>
```
…
## 원하는 열만 선택 `select()`

데이터의 변수가 수백개 또는 수천개인 경우가 종종 있다. 이런 경우 관심있는 변수들에 국한하여 작업을 진행하는 것이 좋다. select() 함수로 원하는 변수를 선택할 수 있다. 

```r
# 열 이름으로 선택하기
select(flights, year, month, day)
```

```
# A tibble: 336,776 x 3
    year month   day
   <int> <int> <int>
 1  2013     1     1
 2  2013     1     1
 3  2013     1     1
 4  2013     1     1
 5  2013     1     1
 6  2013     1     1
 7  2013     1     1
 8  2013     1     1
 9  2013     1     1
10  2013     1     1
# ... with 336,766 more rows
```
---

```r
# year부터 day 까지 열 선택하기
select(flights, year:day)
```

```
# A tibble: 336,776 x 3
    year month   day
   <int> <int> <int>
 1  2013     1     1
 2  2013     1     1
 3  2013     1     1
 4  2013     1     1
 5  2013     1     1
 6  2013     1     1
 7  2013     1     1
 8  2013     1     1
 9  2013     1     1
10  2013     1     1
# ... with 336,766 more rows
```
---

```r
# year부터 day 까지 열을 제외하고 나머지 열 선택
select(flights, -(year:day))
```

```
# A tibble: 336,776 x 16
   dep_time sched_dep_time dep_delay arr_time sched_arr_time arr_delay
      <int>          <int>     <dbl>    <int>          <int>     <dbl>
 1      517            515         2      830            819        11
 2      533            529         4      850            830        20
 3      542            540         2      923            850        33
 4      544            545        -1     1004           1022       -18
 5      554            600        -6      812            837       -25
 6      554            558        -4      740            728        12
 7      555            600        -5      913            854        19
 8      557            600        -3      709            723       -14
 9      557            600        -3      838            846        -8
10      558            600        -2      753            745         8
# ... with 336,766 more rows, and 10 more variables: carrier <chr>,
#   flight <int>, tailnum <chr>, origin <chr>, dest <chr>, air_time <dbl>,
#   distance <dbl>, hour <dbl>, minute <dbl>, time_hour <dttm>
```
…
---

### everything()과 함께 select() 사용

데이터 프레임의 변수 순서를 바꿀때 유용

```r
select(flights, time_hour, air_time,everything())
```

```
# A tibble: 336,776 x 19
             time_hour air_time  year month   day dep_time sched_dep_time
                <dttm>    <dbl> <int> <int> <int>    <int>          <int>
 1 2013-01-01 05:00:00      227  2013     1     1      517            515
 2 2013-01-01 05:00:00      227  2013     1     1      533            529
 3 2013-01-01 05:00:00      160  2013     1     1      542            540
 4 2013-01-01 05:00:00      183  2013     1     1      544            545
 5 2013-01-01 06:00:00      116  2013     1     1      554            600
 6 2013-01-01 05:00:00      150  2013     1     1      554            558
 7 2013-01-01 06:00:00      158  2013     1     1      555            600
 8 2013-01-01 06:00:00       53  2013     1     1      557            600
 9 2013-01-01 06:00:00      140  2013     1     1      557            600
10 2013-01-01 06:00:00      138  2013     1     1      558            600
# ... with 336,766 more rows, and 12 more variables: dep_delay <dbl>,
#   arr_time <int>, sched_arr_time <int>, arr_delay <dbl>, carrier <chr>,
#   flight <int>, tailnum <chr>, origin <chr>, dest <chr>, distance <dbl>,
#   hour <dbl>, minute <dbl>
```
…
기존의 열에서 새로운 열을 만들 때 `mutate()`함수를 사용할 수 있다.

```r
flights_sml <- select(flights, 
                      year:day, ends_with("delay"), distance, air_time)

mutate(flights_sml,
  gain = arr_delay - dep_delay,
  speed = distance / air_time * 60
)
```

```
# A tibble: 336,776 x 9
    year month   day dep_delay arr_delay distance air_time  gain    speed
   <int> <int> <int>     <dbl>     <dbl>    <dbl>    <dbl> <dbl>    <dbl>
 1  2013     1     1         2        11     1400      227     9 370.0441
 2  2013     1     1         4        20     1416      227    16 374.2731
 3  2013     1     1         2        33     1089      160    31 408.3750
 4  2013     1     1        -1       -18     1576      183   -17 516.7213
 5  2013     1     1        -6       -25      762      116   -19 394.1379
 6  2013     1     1        -4        12      719      150    16 287.6000
 7  2013     1     1        -5        19     1065      158    24 404.4304
 8  2013     1     1        -3       -14      229       53   -11 259.2453
 9  2013     1     1        -3        -8      944      140    -5 404.5714
10  2013     1     1        -2         8      733      138    10 318.6957
# ... with 336,766 more rows
```
---
방금 만든 열도 참조하여 새 열을 만들 수 있다.

```r
mutate(flights_sml,
  gain = arr_delay - dep_delay,
  hours = air_time / 60,
  gain_per_hour = gain / hours
)
```

```
# A tibble: 336,776 x 10
    year month   day dep_delay arr_delay distance air_time  gain     hours
   <int> <int> <int>     <dbl>     <dbl>    <dbl>    <dbl> <dbl>     <dbl>
 1  2013     1     1         2        11     1400      227     9 3.7833333
 2  2013     1     1         4        20     1416      227    16 3.7833333
 3  2013     1     1         2        33     1089      160    31 2.6666667
 4  2013     1     1        -1       -18     1576      183   -17 3.0500000
 5  2013     1     1        -6       -25      762      116   -19 1.9333333
 6  2013     1     1        -4        12      719      150    16 2.5000000
 7  2013     1     1        -5        19     1065      158    24 2.6333333
 8  2013     1     1        -3       -14      229       53   -11 0.8833333
 9  2013     1     1        -3        -8      944      140    -5 2.3333333
10  2013     1     1        -2         8      733      138    10 2.3000000
# ... with 336,766 more rows, and 1 more variables: gain_per_hour <dbl>
```

---
새로 만든 변수만 유지하고 나머지 변수는 없앨 경우 `transmutate()`를 쓴다.

```r
transmute(flights,
  gain = arr_delay - dep_delay,
  hours = air_time / 60,
  gain_per_hour = gain / hours
)
```

```
# A tibble: 336,776 x 3
    gain     hours gain_per_hour
   <dbl>     <dbl>         <dbl>
 1     9 3.7833333      2.378855
 2    16 3.7833333      4.229075
 3    31 2.6666667     11.625000
 4   -17 3.0500000     -5.573770
 5   -19 1.9333333     -9.827586
 6    16 2.5000000      6.400000
 7    24 2.6333333      9.113924
 8   -11 0.8833333    -12.452830
 9    -5 2.3333333     -2.142857
10    10 2.3000000      4.347826
# ... with 336,766 more rows
```
…
- 산수 연산자: +, -, \*, / , ^ . 예를 들어 air_time/60, hours\*60 + minute  

- 몫과 나머지: 몫(`%/%`) 연산자, 나머지(`%%`) 연산자

```r
transmute(flights,
  dep_time,
  hour = dep_time %/% 100,
  minute = dep_time %% 100
)
```

```
# A tibble: 336,776 x 3
   dep_time  hour minute
      <int> <dbl>  <dbl>
 1      517     5     17
 2      533     5     33
 3      542     5     42
 4      544     5     44
 5      554     5     54
 6      554     5     54
 7      555     5     55
 8      557     5     57
 9      557     5     57
10      558     5     58
# ... with 336,766 more rows
```
…
1.Currently `dep_time` and `sched_dep_time` are convenient to look at, but hard to compute with because they’re not really continuous numbers. Convert them to a more convenient representation of number of minutes since midnight.

```r
flights %>% 
    select(ends_with("dep_time")) %>% 
    mutate(
        dep_min = dep_time %/% 100*60 + dep_time %% 100,
        sched_dep_min = sched_dep_time %/% 100*60 + sched_dep_time %% 100
    )
```

```
# A tibble: 336,776 x 4
   dep_time sched_dep_time dep_min sched_dep_min
      <int>          <int>   <dbl>         <dbl>
 1      517            515     317           315
 2      533            529     333           329
 3      542            540     342           340
 4      544            545     344           345
 5      554            600     354           360
 6      554            558     354           358
 7      555            600     355           360
 8      557            600     357           360
 9      557            600     357           360
10      558            600     358           360
# ... with 336,766 more rows
```
---
2.Compare `air_time` with `arr_time - dep_time`. What do you expect to see? What do you see? What do you need to do to fix it?

```r
flights %>% 
    mutate(time_diff = arr_time - dep_time) %>%
    select(air_time,arr_time,dep_time,time_diff)
```

```
# A tibble: 336,776 x 4
   air_time arr_time dep_time time_diff
      <dbl>    <int>    <int>     <int>
 1      227      830      517       313
 2      227      850      533       317
 3      160      923      542       381
 4      183     1004      544       460
 5      116      812      554       258
 6      150      740      554       186
 7      158      913      555       358
 8       53      709      557       152
 9      140      838      557       281
10      138      753      558       195
# ... with 336,766 more rows
```
…
```r
time2min=function(time){
    time %/%100*60 + time %%100
}
flights %>% 
    mutate(
        arr_min=time2min(arr_time),
        dep_min=time2min(dep_time),
        timediff=arr_min-dep_min
    ) %>%
    select(air_time,arr_time, dep_time, timediff)
```

```
# A tibble: 336,776 x 4
   air_time arr_time dep_time timediff
      <dbl>    <int>    <int>    <dbl>
 1      227      830      517      193
 2      227      850      533      197
 3      160      923      542      221
 4      183     1004      544      260
 5      116      812      554      138
 6      150      740      554      106
 7      158      913      555      198
 8       53      709      557       72
 9      140      838      557      161
10      138      753      558      115
# ... with 336,766 more rows
```
…
