관계형데이터
…
어떤 변수는 기본키이자 외래키일 수도 있다. 예를 들어 origin은 weather데이터의 기본키 중 하나이자 airport 테이블과 연결해주는 외래키이다.

기본키의 확인

하나의 테이블에서 기본키를 식별한 경우, 정말로 그 기본키가 각 관찰치를 고우하게 식별하는지 확인해 볼 필요가 있다. 한가지 방법은 기본키를 count()한 후 n 값이 1이상 것을 찾아보면 된다.

예제

planes 데이터에서 tailnum을 count하여 n값이 1이상인 것을 filter해보자

weather데이터의 기본키를 확인해보자

planes 

# A tibble: 3,322 x 9
   tailnum  year                    type     manufacturer     model
     <chr> <int>                   <chr>            <chr>     <chr>
 1  N10156  2004 Fixed wing multi engine          EMBRAER EMB-145XR
 2  N102UW  1998 Fixed wing multi engine AIRBUS INDUSTRIE  A320-214
 3  N103US  1999 Fixed wing multi engine AIRBUS INDUSTRIE  A320-214
 4  N104UW  1999 Fixed wing multi engine AIRBUS INDUSTRIE  A320-214
 5  N10575  2002 Fixed wing multi engine          EMBRAER EMB-145LR
 6  N105UW  1999 Fixed wing multi engine AIRBUS INDUSTRIE  A320-214
 7  N107US  1999 Fixed wing multi engine AIRBUS INDUSTRIE  A320-214
 8  N108UW  1999 Fixed wing multi engine AIRBUS INDUSTRIE  A320-214
 9  N109UW  1999 Fixed wing multi engine AIRBUS INDUSTRIE  A320-214
10  N110UW  1999 Fixed wing multi engine AIRBUS INDUSTRIE  A320-214
# ... with 3,312 more rows, and 4 more variables: engines <int>,
#   seats <int>, speed <int>, engine <chr>
…
# A tibble: 0 x 2
# ... with 2 variables: tailnum <chr>, n <int>

대체키(surrogate key)

어떤 경우는 테이블에 명백한 기본키가 없는 경우도 있다. 각각의 행이 관찰치이지만 변수들을 조합하여도 각 관찰치를 식별할 수 없는 경우이다. 예를 들어 flights 테이블에서 기본키는 어떤 것일까? 날짜(year, month, day) 와 flight 또는 날짜와 tailnum을 조합하여도 고유한 식별자는 되지 않는다.

flights %>% 
  count(year, month, day, flight) %>% 
  filter(n > 1)

# A tibble: 29,768 x 5
    year month   day flight     n
   <int> <int> <int>  <int> <int>
 1  2013     1     1      1     2
 2  2013     1     1      3     2
 3  2013     1     1      4     2
 4  2013     1     1     11     3
 5  2013     1     1     15     2
 6  2013     1     1     21     2
 7  2013     1     1     27     4
 8  2013     1     1     31     2
 9  2013     1     1     32     2
10  2013     1     1     35     2
# ... with 29,758 more rows

기본키가 없는 경우 mutate()와 row_number()를 사용해서 기본키 역할을 하는 변수를 추가하는 것이 도움이 될 때가 있다. 이런 변수를 대체키(surrogate key)라고 하며 대체키는 데이터를 필터링한 후 원래의 데이터를 체크해볼때 유용하다.

관계(relation)

기본키와 다른 테이블의 외래키는 관계(relation)를 형성한다. 관계는 전형적으로 일대다 관계이다. 예를 들어 각 비행(flight)은 하나의 비행기(plane)을 갖지만 각 비행기는 여러 번의 비행을 한다. 어떤 데이터에서는 1대1의 관계를 보기도 하는데 이는 1대다 관계의 특수한 경우로 생각할 수 있다. 또한 다대일 및 일대다 관계로 부터 다대다 관계를 맺기도 한다. 예를 들어 이 데이터에서 airlines와 airports는 다대다 관계이다. rkr airline은 여러 공항으로 비행하고 각 공항에는 많은 항공사가 있다.

연습문제

flights 데이터에서 대체키를 추가하라.

flights

# A tibble: 336,776 x 19
    year month   day dep_time sched_dep_time dep_delay arr_time
   <int> <int> <int>    <int>          <int>     <dbl>    <int>
 1  2013     1     1      517            515         2      830
 2  2013     1     1      533            529         4      850
 3  2013     1     1      542            540         2      923
 4  2013     1     1      544            545        -1     1004
 5  2013     1     1      554            600        -6      812
 6  2013     1     1      554            558        -4      740
 7  2013     1     1      555            600        -5      913
 8  2013     1     1      557            600        -3      709
 9  2013     1     1      557            600        -3      838
10  2013     1     1      558            600        -2      753
# ... with 336,766 more rows, and 12 more variables: sched_arr_time <int>,
#   arr_delay <dbl>, carrier <chr>, flight <int>, tailnum <chr>,
#   origin <chr>, dest <chr>, air_time <dbl>, distance <dbl>, hour <dbl>,
#   minute <dbl>, time_hour <dttm>

flights %>% mutate(no=row_number()) 

# A tibble: 336,776 x 20
    year month   day dep_time sched_dep_time dep_delay arr_time
   <int> <int> <int>    <int>          <int>     <dbl>    <int>
 1  2013     1     1      517            515         2      830
 2  2013     1     1      533            529         4      850
 3  2013     1     1      542            540         2      923
 4  2013     1     1      544            545        -1     1004
 5  2013     1     1      554            600        -6      812
 6  2013     1     1      554            558        -4      740
 7  2013     1     1      555            600        -5      913
 8  2013     1     1      557            600        -3      709
 9  2013     1     1      557            600        -3      838
10  2013     1     1      558            600        -2      753
# ... with 336,766 more rows, and 13 more variables: sched_arr_time <int>,
#   arr_delay <dbl>, carrier <chr>, flight <int>, tailnum <chr>,
#   origin <chr>, dest <chr>, air_time <dbl>, distance <dbl>, hour <dbl>,
#   minute <dbl>, time_hour <dttm>, no <int>
…
(경우에 따라 패키지를 설치하거나 도움말을 참조하라)

Lahman::Batting

변수 추가(Mutating joins)

Mutating joins

Mutating join으로 두 테이블의 변수를 병합할 수 있다. 먼저 키를 매치 시킨후 변수를 다른 테이블로 복사한다. mutate()와 마찬가지로 변수를 오른쪽 끝에 추가하기 때문에 변수가 많은 경우 추가된 변수를 잘 볼 수 없다. mutating join의 동작을 잘 보기 위해 flights 데이터의 변수를 줄여 flights2에 저장한다.

flights2 <- flights %>%
    select(year:day, hour, origin, dest, tailnum, carrier)
flights2

# A tibble: 336,776 x 8
    year month   day  hour origin  dest tailnum carrier
   <int> <int> <int> <dbl>  <chr> <chr>   <chr>   <chr>
 1  2013     1     1     5    EWR   IAH  N14228      UA
 2  2013     1     1     5    LGA   IAH  N24211      UA
 3  2013     1     1     5    JFK   MIA  N619AA      AA
 4  2013     1     1     5    JFK   BQN  N804JB      B6
 5  2013     1     1     6    LGA   ATL  N668DN      DL
 6  2013     1     1     5    EWR   ORD  N39463      UA
 7  2013     1     1     6    EWR   FLL  N516JB      B6
 8  2013     1     1     6    LGA   IAD  N829AS      EV
 9  2013     1     1     6    JFK   MCO  N593JB      B6
10  2013     1     1     6    LGA   ORD  N3ALAA      AA
# ... with 336,766 more rows

flights2에 항공사의이름을 추가해보자 flights2데이터에 airlines 데이터를 left join()으로 병합한다.

flights2 %>%
    select(-origin, -dest) %>%
    left_join(airlines, by ="carrier")

# A tibble: 336,776 x 7
    year month   day  hour tailnum carrier                     name
   <int> <int> <int> <dbl>   <chr>   <chr>                    <chr>
 1  2013     1     1     5  N14228      UA    United Air Lines Inc.
 2  2013     1     1     5  N24211      UA    United Air Lines Inc.
 3  2013     1     1     5  N619AA      AA   American Airlines Inc.
 4  2013     1     1     5  N804JB      B6          JetBlue Airways
 5  2013     1     1     6  N668DN      DL     Delta Air Lines Inc.
 6  2013     1     1     5  N39463      UA    United Air Lines Inc.
 7  2013     1     1     6  N516JB      B6          JetBlue Airways
 8  2013     1     1     6  N829AS      EV ExpressJet Airlines Inc.
 9  2013     1     1     6  N593JB      B6          JetBlue Airways
10  2013     1     1     6  N3ALAA      AA   American Airlines Inc.
# ... with 336,766 more rows

airlines데이터를 flights2 데이터에 join시키면 name 변수가 추가된다.

left_join()함수를 쓰지 않고 base R의 subset과 mutate()를 써서 같은 작업을 할 수 있다.

flights2 %>%
  select(-origin, -dest) %>% 
  mutate(name = airlines$name[match(carrier, airlines$carrier)])

# A tibble: 336,776 x 7
    year month   day  hour tailnum carrier                     name
   <int> <int> <int> <dbl>   <chr>   <chr>                    <chr>
 1  2013     1     1     5  N14228      UA    United Air Lines Inc.
 2  2013     1     1     5  N24211      UA    United Air Lines Inc.
 3  2013     1     1     5  N619AA      AA   American Airlines Inc.
 4  2013     1     1     5  N804JB      B6          JetBlue Airways
 5  2013     1     1     6  N668DN      DL     Delta Air Lines Inc.
 6  2013     1     1     5  N39463      UA    United Air Lines Inc.
 7  2013     1     1     6  N516JB      B6          JetBlue Airways
 8  2013     1     1     6  N829AS      EV ExpressJet Airlines Inc.
 9  2013     1     1     6  N593JB      B6          JetBlue Airways
10  2013     1     1     6  N3ALAA      AA   American Airlines Inc.
# ... with 336,766 more rows
…
키 열(들)을 정의하기

지금까지는 테이블들은 하나의 변수로 연결되었고 그 변수는 양 테이블에 같은 이름으로 존재했다. 이러한 경우 by = "key"형식으로 코딩할 수 있다. 다른 방법으로 테이블들을 연결할때는 by인수에 다른 값을 사용할 수 있다.

디폴트 값인 by = NULL은 양 테이블에 모두 나타나는 모든 변수들을 사용하는데 이 경우 자연조인(natural join)이라고도 한다. 예를 들어 flights와 weather 테이블은 공통된 변수들로 year, month, day, hour, origin을 가지고 있다.

flights2 %>%
    left_join(weather)

# A tibble: 336,776 x 18
    year month   day  hour origin  dest tailnum carrier  temp  dewp humid
   <dbl> <dbl> <int> <dbl>  <chr> <chr>   <chr>   <chr> <dbl> <dbl> <dbl>
 1  2013     1     1     5    EWR   IAH  N14228      UA    NA    NA    NA
 2  2013     1     1     5    LGA   IAH  N24211      UA    NA    NA    NA
 3  2013     1     1     5    JFK   MIA  N619AA      AA    NA    NA    NA
 4  2013     1     1     5    JFK   BQN  N804JB      B6    NA    NA    NA
 5  2013     1     1     6    LGA   ATL  N668DN      DL 39.92 26.06 57.33
 6  2013     1     1     5    EWR   ORD  N39463      UA    NA    NA    NA
 7  2013     1     1     6    EWR   FLL  N516JB      B6 39.02 26.06 59.37
 8  2013     1     1     6    LGA   IAD  N829AS      EV 39.92 26.06 57.33
 9  2013     1     1     6    JFK   MCO  N593JB      B6 39.02 26.06 59.37
10  2013     1     1     6    LGA   ORD  N3ALAA      AA 39.92 26.06 57.33
# ... with 336,766 more rows, and 7 more variables: wind_dir <dbl>,
#   wind_speed <dbl>, wind_gust <dbl>, precip <dbl>, pressure <dbl>,
#   visib <dbl>, time_hour <dttm>

문자형 벡터를 by = "x"와 같이 사용할 수 있다. 자연조인과 비슷하지만 공통뵌 변수의 일부만 사용한다. 예를 들어 flights와 planes는 공통적으로 year변수가 있으나 서로 다른 의미로 사용하므로 tailnum만으로 조인한다.

flights2 %>%
    left_join(planes,by="tailnum")

# A tibble: 336,776 x 16
   year.x month   day  hour origin  dest tailnum carrier year.y
    <int> <int> <int> <dbl>  <chr> <chr>   <chr>   <chr>  <int>
 1   2013     1     1     5    EWR   IAH  N14228      UA   1999
 2   2013     1     1     5    LGA   IAH  N24211      UA   1998
 3   2013     1     1     5    JFK   MIA  N619AA      AA   1990
 4   2013     1     1     5    JFK   BQN  N804JB      B6   2012
 5   2013     1     1     6    LGA   ATL  N668DN      DL   1991
 6   2013     1     1     5    EWR   ORD  N39463      UA   2012
 7   2013     1     1     6    EWR   FLL  N516JB      B6   2000
 8   2013     1     1     6    LGA   IAD  N829AS      EV   1998
 9   2013     1     1     6    JFK   MCO  N593JB      B6   2004
10   2013     1     1     6    LGA   ORD  N3ALAA      AA     NA
# ... with 336,766 more rows, and 7 more variables: type <chr>,
#   manufacturer <chr>, model <chr>, engines <int>, seats <int>,
#   speed <int>, engine <chr>

이때 year변수가 양쪽 테이블에 모두 있으므로 혼동을 피하기 위해 year.x, year.y로 접미사를 붙인다.

by = c("a" = "b")와 같이 이름을 붙인 문자형 벡터를 사용할 수도 있다. 이 경우 테이블 x의 a 변수와 테이블 y의 b변수를 매칭한다. 결과물에는 x의 변수 이름을 사용한다.

예를 들어 flights 데이터와 위도 경도 좌표가 있는 airports 데이터를 병합하여 지도를 그릴 수 있다. 각 비행기록에는 출발공항(origin)과 도착공항(destination)이 있으므로 어느 공항을 원하는지 명확이 하여야 한다.

flights2 %>%
    left_join(airports,c("dest"="faa"))

# A tibble: 336,776 x 15
    year month   day  hour origin  dest tailnum carrier
   <int> <int> <int> <dbl>  <chr> <chr>   <chr>   <chr>
 1  2013     1     1     5    EWR   IAH  N14228      UA
 2  2013     1     1     5    LGA   IAH  N24211      UA
 3  2013     1     1     5    JFK   MIA  N619AA      AA
 4  2013     1     1     5    JFK   BQN  N804JB      B6
 5  2013     1     1     6    LGA   ATL  N668DN      DL
 6  2013     1     1     5    EWR   ORD  N39463      UA
 7  2013     1     1     6    EWR   FLL  N516JB      B6
 8  2013     1     1     6    LGA   IAD  N829AS      EV
 9  2013     1     1     6    JFK   MCO  N593JB      B6
10  2013     1     1     6    LGA   ORD  N3ALAA      AA
# ... with 336,766 more rows, and 7 more variables: name <chr>, lat <dbl>,
#   lon <dbl>, alt <int>, tz <dbl>, dst <chr>, tzone <chr>

flights2 %>%
    left_join(airports,c("origin"="faa"))

# A tibble: 336,776 x 15
    year month   day  hour origin  dest tailnum carrier
   <int> <int> <int> <dbl>  <chr> <chr>   <chr>   <chr>
 1  2013     1     1     5    EWR   IAH  N14228      UA
 2  2013     1     1     5    LGA   IAH  N24211      UA
 3  2013     1     1     5    JFK   MIA  N619AA      AA
 4  2013     1     1     5    JFK   BQN  N804JB      B6
 5  2013     1     1     6    LGA   ATL  N668DN      DL
 6  2013     1     1     5    EWR   ORD  N39463      UA
 7  2013     1     1     6    EWR   FLL  N516JB      B6
 8  2013     1     1     6    LGA   IAD  N829AS      EV
 9  2013     1     1     6    JFK   MCO  N593JB      B6
10  2013     1     1     6    LGA   ORD  N3ALAA      AA
# ... with 336,766 more rows, and 7 more variables: name <chr>, lat <dbl>,
#   lon <dbl>, alt <int>, tz <dbl>, dst <chr>, tzone <chr>
…
flights %>%
    group_by(dest) %>%
    summarize(delay=mean(arr_delay,na.rm=TRUE)) 

# A tibble: 105 x 2
    dest     delay
   <chr>     <dbl>
 1   ABQ  4.381890
 2   ACK  4.852273
 3   ALB 14.397129
 4   ANC -2.500000
 5   ATL 11.300113
 6   AUS  6.019909
 7   AVL  8.003831
 8   BDL  7.048544
 9   BGR  8.027933
10   BHM 16.877323
# ... with 95 more rows
…
flights2 데이터에 origin과 destination의 위치(lon과 lat)를 추가하라.

flights2

# A tibble: 336,776 x 8
    year month   day  hour origin  dest tailnum carrier
   <int> <int> <int> <dbl>  <chr> <chr>   <chr>   <chr>
 1  2013     1     1     5    EWR   IAH  N14228      UA
 2  2013     1     1     5    LGA   IAH  N24211      UA
 3  2013     1     1     5    JFK   MIA  N619AA      AA
 4  2013     1     1     5    JFK   BQN  N804JB      B6
 5  2013     1     1     6    LGA   ATL  N668DN      DL
 6  2013     1     1     5    EWR   ORD  N39463      UA
 7  2013     1     1     6    EWR   FLL  N516JB      B6
 8  2013     1     1     6    LGA   IAD  N829AS      EV
 9  2013     1     1     6    JFK   MCO  N593JB      B6
10  2013     1     1     6    LGA   ORD  N3ALAA      AA
# ... with 336,766 more rows

airports2 <- airports %>%
    select(c(1,3,4))

flights2 %>%
    left_join(airports2, by=c("origin"="faa")) %>%
    left_join(airports2, by=c("dest"="faa"))

# A tibble: 336,776 x 12
    year month   day  hour origin  dest tailnum carrier    lat.x     lon.x
   <int> <int> <int> <dbl>  <chr> <chr>   <chr>   <chr>    <dbl>     <dbl>
 1  2013     1     1     5    EWR   IAH  N14228      UA 40.69250 -74.16867
 2  2013     1     1     5    LGA   IAH  N24211      UA 40.77725 -73.87261
 3  2013     1     1     5    JFK   MIA  N619AA      AA 40.63975 -73.77893
 4  2013     1     1     5    JFK   BQN  N804JB      B6 40.63975 -73.77893
 5  2013     1     1     6    LGA   ATL  N668DN      DL 40.77725 -73.87261
 6  2013     1     1     5    EWR   ORD  N39463      UA 40.69250 -74.16867
 7  2013     1     1     6    EWR   FLL  N516JB      B6 40.69250 -74.16867
 8  2013     1     1     6    LGA   IAD  N829AS      EV 40.77725 -73.87261
 9  2013     1     1     6    JFK   MCO  N593JB      B6 40.63975 -73.77893
10  2013     1     1     6    LGA   ORD  N3ALAA      AA 40.77725 -73.87261
# ... with 336,766 more rows, and 2 more variables: lat.y <dbl>,
#   lon.y <dbl>

비행기의 나이와 연착시간은 관계가 있는가?

flights %>% 
    group_by(tailnum) %>%
    summarise(delay=mean(arr_delay,na.rm=TRUE))

# A tibble: 4,044 x 2
   tailnum      delay
     <chr>      <dbl>
 1  D942DN 31.5000000
 2  N0EGMQ  9.9829545
 3  N10156 12.7172414
 4  N102UW  2.9375000
 5  N103US -6.9347826
 6  N104UW  1.8043478
 7  N10575 20.6914498
 8  N105UW -0.2666667
 9  N107US -5.7317073
10  N108UW -1.2500000
# ... with 4,034 more rows
…
어떤 기후조건이 보다 많은 지연을 일으키는가?

flights %>%
    left_join(weather) 

# A tibble: 336,776 x 28
    year month   day dep_time sched_dep_time dep_delay arr_time
   <dbl> <dbl> <int>    <int>          <int>     <dbl>    <int>
 1  2013     1     1      517            515         2      830
 2  2013     1     1      533            529         4      850
 3  2013     1     1      542            540         2      923
 4  2013     1     1      544            545        -1     1004
 5  2013     1     1      554            600        -6      812
 6  2013     1     1      554            558        -4      740
 7  2013     1     1      555            600        -5      913
 8  2013     1     1      557            600        -3      709
 9  2013     1     1      557            600        -3      838
10  2013     1     1      558            600        -2      753
# ... with 336,766 more rows, and 21 more variables: sched_arr_time <int>,
#   arr_delay <dbl>, carrier <chr>, flight <int>, tailnum <chr>,
#   origin <chr>, dest <chr>, air_time <dbl>, distance <dbl>, hour <dbl>,
#   minute <dbl>, time_hour <dttm>, temp <dbl>, dewp <dbl>, humid <dbl>,
#   wind_dir <dbl>, wind_speed <dbl>, wind_gust <dbl>, precip <dbl>,
#   pressure <dbl>, visib <dbl>
…
이제 top_dest로 비행한 flights를 찾으려고 하면 먼저 다음과 같이 filter()하는 것을 생각해볼 수 있다.

flights %>%
    filter(dest %in% top_dest$dest)

# A tibble: 141,145 x 19
    year month   day dep_time sched_dep_time dep_delay arr_time
   <int> <int> <int>    <int>          <int>     <dbl>    <int>
 1  2013     1     1      542            540         2      923
 2  2013     1     1      554            600        -6      812
 3  2013     1     1      554            558        -4      740
 4  2013     1     1      555            600        -5      913
 5  2013     1     1      557            600        -3      838
 6  2013     1     1      558            600        -2      753
 7  2013     1     1      558            600        -2      924
 8  2013     1     1      558            600        -2      923
 9  2013     1     1      559            559         0      702
10  2013     1     1      600            600         0      851
# ... with 141,135 more rows, and 12 more variables: sched_arr_time <int>,
#   arr_delay <dbl>, carrier <chr>, flight <int>, tailnum <chr>,
#   origin <chr>, dest <chr>, air_time <dbl>, distance <dbl>, hour <dbl>,
#   minute <dbl>, time_hour <dttm>

하지만 이 방법은 여러 개의 변수에 확장해서 사용하기는 어렵다. 예를 들어 평균 연착이 가장 많은 10일을 찾았다고 해보자. 이때 이와 같은 filter방법으로 year, month, day를 flights 데이터에서 매칭하기는 어렵다.

semi-join을 사용하면 두 테이블을 mutating join 같이 연결하지만 새 변수를 추가하는 것이 아니라 y에 매치가 되는 x의 관찰치만을 남긴다.

flights %>%
    semi_join(top_dest)

# A tibble: 141,145 x 19
    year month   day dep_time sched_dep_time dep_delay arr_time
   <int> <int> <int>    <int>          <int>     <dbl>    <int>
 1  2013     1     1      554            558        -4      740
 2  2013     1     1      558            600        -2      753
 3  2013     1     1      608            600         8      807
 4  2013     1     1      629            630        -1      824
 5  2013     1     1      656            700        -4      854
 6  2013     1     1      709            700         9      852
 7  2013     1     1      715            713         2      911
 8  2013     1     1      739            745        -6      918
 9  2013     1     1      749            710        39      939
10  2013     1     1      828            830        -2     1027
# ... with 141,135 more rows, and 12 more variables: sched_arr_time <int>,
#   arr_delay <dbl>, carrier <chr>, flight <int>, tailnum <chr>,
#   origin <chr>, dest <chr>, air_time <dbl>, distance <dbl>, hour <dbl>,
#   minute <dbl>, time_hour <dttm>
…
Anti-join은 mismatch를 진단할 때 유용하다. 예를 들어 flights와 planes를 연결할 때 planes 데이터에 match 되지 않는 비행데이터가 얼마나 되는지 관심있다면 다음과 같이 할 수 있다.

flights %>%
    anti_join(planes,by="tailnum") %>%
    count(tailnum, sort=TRUE)

# A tibble: 722 x 2
   tailnum     n
     <chr> <int>
 1    <NA>  2512
 2  N725MQ   575
 3  N722MQ   513
 4  N723MQ   507
 5  N713MQ   483
 6  N735MQ   396
 7  N0EGMQ   371
 8  N534MQ   364
 9  N542MQ   363
10  N531MQ   349
# ... with 712 more rows
…
